<svg xmlns="http://www.w3.org/2000/svg" width="26.435" height="15.339" viewBox="0 0 26.435 15.339">
  <path id="Path_16" data-name="Path 16" d="M12.157,0,0,12.157,12.157,24.314" transform="translate(1.061 13.218) rotate(-90)" fill="none" stroke="#061956" stroke-width="3"/>
</svg>
