<?xml version="1.0" standalone="no"?>
<!DOCTYPE svg PUBLIC "-//W3C//DTD SVG 20010904//EN"
 "http://www.w3.org/TR/2001/REC-SVG-20010904/DTD/svg10.dtd">
<svg version="1.0" xmlns="http://www.w3.org/2000/svg"
 width="270.000000pt" height="270.000000pt" viewBox="0 0 270.000000 270.000000"
 preserveAspectRatio="xMidYMid meet">
<metadata>
Created by potrace 1.11, written by Peter Selinger 2001-2013
</metadata>
<g transform="translate(0.000000,270.000000) scale(0.100000,-0.100000)"
fill="#000000" stroke="none">
<path d="M1075 2691 c-2 -4 19 -6 45 -5 27 0 47 -3 44 -8 -3 -5 -9 -6 -14 -3
-4 3 -11 -1 -13 -7 -4 -10 -6 -10 -6 0 -1 6 -5 12 -11 12 -5 0 -7 -8 -4 -17 5
-14 4 -15 -4 -4 -6 8 -17 11 -25 8 -8 -3 -24 1 -35 8 -17 13 -22 12 -36 -4 -9
-10 -13 -20 -10 -24 9 -8 -19 -3 -35 7 -10 7 -12 6 -6 -4 6 -10 4 -12 -8 -7
-9 3 -23 0 -31 -8 -7 -8 -16 -11 -20 -8 -3 4 -6 1 -6 -5 0 -7 -5 -12 -11 -12
-5 0 -7 4 -4 10 3 6 -1 7 -9 4 -9 -3 -14 -9 -12 -13 3 -4 -5 -13 -17 -21 -20
-12 -21 -12 -9 3 10 12 10 17 1 23 -8 4 -9 3 -5 -4 4 -7 1 -12 -8 -12 -8 0
-18 -5 -22 -12 -5 -7 -3 -8 6 -3 9 5 11 4 6 -3 -5 -8 -13 -9 -25 -2 -13 6 -24
5 -37 -6 -18 -14 -17 -14 6 -4 l25 11 -25 -20 c-13 -10 -28 -17 -32 -15 -4 3
-8 0 -8 -7 0 -6 -8 -9 -20 -6 -13 3 -18 1 -13 -6 4 -6 0 -8 -10 -4 -9 3 -19 1
-23 -5 -5 -7 -2 -8 7 -4 8 4 5 0 -5 -8 -14 -11 -23 -13 -32 -5 -10 8 -12 6 -9
-10 3 -14 -1 -18 -11 -14 -10 4 -12 0 -8 -10 4 -12 1 -15 -14 -12 -12 2 -27
-4 -34 -13 -11 -13 -11 -14 1 -7 10 5 12 4 7 -4 -6 -9 -11 -9 -22 0 -12 10
-13 9 -8 -6 5 -13 4 -16 -4 -11 -7 4 -12 2 -12 -4 0 -6 -5 -8 -12 -4 -9 5 -8
2 1 -9 12 -15 12 -17 -3 -11 -13 5 -30 -6 -60 -40 -24 -25 -49 -46 -57 -46
-12 0 -12 -2 0 -9 11 -7 10 -10 -6 -15 -27 -9 -70 -59 -65 -75 3 -8 0 -11 -7
-7 -10 7 -16 -6 -12 -28 1 -5 -5 -6 -14 -3 -8 4 -15 2 -15 -4 0 -6 -5 -7 -12
-3 -7 4 -8 3 -4 -5 4 -6 13 -9 19 -5 7 3 -1 -6 -18 -21 -16 -14 -23 -23 -15
-19 13 7 13 5 1 -9 -7 -9 -18 -14 -24 -10 -6 3 -7 1 -3 -5 4 -6 -2 -20 -14
-32 -11 -11 -15 -20 -9 -20 6 0 3 -7 -5 -16 -9 -8 -14 -20 -11 -25 4 -5 -1 -9
-10 -9 -9 0 -13 -5 -10 -10 9 -15 -15 -41 -29 -33 -6 4 -5 -1 3 -10 9 -12 10
-17 2 -17 -7 0 -9 -5 -6 -10 3 -5 1 -10 -6 -10 -8 0 -8 -4 1 -15 11 -13 10
-14 -2 -10 -15 6 -34 -22 -23 -33 3 -3 5 0 5 6 0 7 5 12 12 12 6 0 1 -11 -11
-24 -13 -14 -20 -29 -16 -35 3 -6 2 -11 -4 -11 -5 0 -8 -9 -6 -19 3 -15 0 -18
-13 -14 -15 6 -16 5 -2 -12 8 -10 10 -16 3 -12 -6 4 -14 3 -18 -3 -3 -5 -1
-10 4 -10 6 0 11 -5 11 -11 0 -5 -6 -7 -12 -3 -10 6 -10 4 0 -8 10 -13 10 -18
1 -24 -8 -5 -9 -3 -4 6 6 9 4 11 -4 6 -9 -6 -9 -12 3 -25 9 -10 13 -21 9 -25
-8 -8 -15 -34 -14 -60 0 -25 -9 -14 -15 19 -2 14 -1 24 4 21 5 -3 9 1 9 9 0
18 -13 20 -20 2 -3 -7 -5 -130 -5 -272 0 -259 0 -260 24 -292 17 -22 21 -34
12 -39 -7 -5 -8 -3 -3 6 5 9 4 11 -4 6 -6 -4 -9 -12 -5 -17 3 -5 9 -7 14 -4 4
3 11 -2 14 -11 4 -10 2 -13 -6 -8 -8 5 -9 2 -5 -10 4 -10 7 -22 7 -27 0 -6 5
-7 11 -3 8 4 9 -1 4 -16 -5 -15 -3 -20 3 -16 6 3 13 2 17 -4 3 -5 2 -10 -3
-10 -5 0 -9 -7 -9 -15 0 -8 5 -11 10 -8 7 4 8 -1 3 -12 -5 -14 -4 -15 7 -7 10
8 13 6 13 -8 0 -10 -4 -16 -8 -14 -4 3 -5 -2 -2 -10 3 -9 10 -13 15 -10 5 3 6
-2 3 -10 -3 -9 -1 -16 5 -16 6 0 11 -5 11 -11 0 -5 -6 -7 -13 -3 -6 4 -1 -5
13 -18 14 -14 30 -23 35 -20 6 3 5 -1 -2 -8 -10 -11 -9 -16 5 -27 9 -8 12 -12
6 -9 -6 3 -11 -1 -11 -9 0 -7 8 -12 18 -10 12 3 16 -1 12 -10 -3 -8 2 -22 11
-31 9 -8 14 -19 11 -24 -3 -4 3 -14 13 -21 16 -13 16 -13 2 6 -14 19 -14 19 3
6 9 -7 17 -22 17 -33 0 -11 4 -16 11 -12 8 5 8 1 0 -14 -15 -29 -14 -37 4 -22
21 17 19 5 -2 -16 -20 -20 -27 -47 -10 -38 7 3 3 -2 -7 -10 -15 -12 -16 -16
-5 -16 10 -1 9 -5 -5 -15 -18 -14 -15 -20 9 -15 5 1 1 -8 -9 -19 -11 -12 -26
-21 -34 -21 -13 0 -12 -3 4 -16 10 -8 14 -13 8 -10 -7 3 -11 -4 -11 -20 0 -27
-9 -41 -19 -31 -4 4 -1 15 7 24 13 16 12 17 -3 5 -11 -9 -16 -25 -14 -47 1
-19 -1 -32 -5 -29 -4 2 -10 0 -14 -6 -3 -5 -2 -10 3 -10 5 0 9 -7 9 -15 0 -8
-4 -12 -9 -9 -4 3 -8 -4 -8 -15 0 -12 -6 -20 -13 -19 -6 2 -12 -4 -12 -12 0
-8 -4 -21 -9 -29 -7 -10 -5 -12 5 -6 9 5 8 1 -3 -11 -12 -13 -14 -24 -7 -36 6
-11 5 -19 -2 -24 -8 -5 -9 -3 -4 7 8 12 6 12 -8 0 -13 -10 -15 -17 -6 -27 9
-11 8 -14 -2 -14 -11 0 -11 -2 1 -10 8 -5 67 -8 132 -8 123 1 122 0 121 45 -1
7 2 11 6 9 4 -3 13 4 20 16 7 11 8 17 3 14 -6 -3 -9 2 -7 11 2 10 4 22 4 26 1
5 5 6 10 2 6 -3 8 4 6 15 -2 11 0 18 5 15 5 -3 11 -1 15 5 3 5 2 10 -3 10 -5
0 -9 7 -9 15 0 8 5 11 10 8 6 -4 8 0 4 10 -3 10 -2 17 3 17 5 0 7 8 3 18 -3 9
-3 14 2 10 4 -4 14 0 21 10 9 13 10 20 1 31 -10 12 -9 13 2 6 11 -6 13 -4 8 8
-3 9 0 18 9 21 8 3 13 2 10 -3 -3 -5 1 -12 10 -15 10 -4 13 -2 8 7 -3 6 4 0
17 -14 13 -14 34 -29 47 -33 12 -4 22 -15 22 -24 0 -15 2 -15 10 -2 7 11 10
11 10 2 0 -7 5 -10 12 -6 6 4 9 3 6 -2 -3 -5 -2 -18 3 -29 l8 -20 1 20 c1 18
2 18 11 3 6 -11 16 -15 27 -11 15 6 15 5 3 -11 -8 -9 -10 -16 -5 -15 27 5 55
-2 48 -13 -4 -6 -3 -8 4 -5 15 10 42 -3 42 -19 0 -8 6 -11 17 -7 12 5 14 3 8
-7 -6 -9 -4 -11 5 -5 8 5 19 1 28 -11 13 -16 14 -17 9 -1 -4 9 -2 17 3 17 6 0
10 -8 10 -17 0 -14 2 -15 9 -5 7 11 9 11 14 -1 3 -8 15 -17 26 -20 14 -3 19
-1 15 6 -5 8 -2 7 7 -1 7 -6 22 -12 32 -12 13 0 17 -5 13 -16 -3 -8 -2 -12 3
-9 5 3 12 1 16 -5 4 -6 12 -7 18 -3 17 10 47 11 47 1 0 -4 7 -8 16 -8 9 0 12
5 8 13 -6 9 -4 9 7 1 8 -6 22 -10 32 -8 11 1 16 -1 12 -4 -4 -4 -12 -7 -18 -7
-5 0 -11 -6 -13 -13 -1 -7 0 -8 3 -2 3 6 11 6 21 2 21 -11 63 -10 81 2 10 6
12 6 7 -3 -6 -9 34 -11 164 -11 156 2 171 3 166 18 -5 15 -5 15 6 2 24 -29 95
-14 83 18 -4 12 -1 12 16 -4 12 -10 19 -14 16 -7 -4 6 -3 14 2 17 5 3 12 -1
15 -10 5 -12 10 -14 20 -5 7 6 17 7 21 3 5 -4 5 -1 0 7 -6 10 -2 12 14 6 17
-5 20 -3 14 12 -6 16 -5 16 10 4 15 -12 17 -11 17 3 0 9 5 16 11 16 5 0 7 -4
4 -10 -3 -6 1 -7 10 -4 10 4 14 13 10 23 -5 13 -4 14 6 4 16 -16 33 -17 23 -1
-5 7 -3 8 6 3 7 -4 16 -2 21 6 6 10 9 11 9 2 0 -7 4 -13 10 -13 5 0 6 7 3 17
-4 11 -3 14 6 9 6 -4 19 -2 28 6 12 9 15 9 9 1 -5 -9 -2 -11 9 -7 9 4 13 9 11
12 -3 3 -1 11 5 19 8 9 15 10 24 3 9 -7 16 -5 26 7 13 17 13 17 -6 3 -18 -14
-19 -14 -7 1 7 10 21 15 31 12 10 -3 22 1 26 8 5 8 4 10 -3 5 -8 -5 -10 -2 -6
8 5 14 8 14 21 1 18 -19 24 -19 17 -2 -3 8 3 20 12 28 16 12 17 12 10 -1 -4
-9 -2 -8 7 2 8 10 18 14 22 10 5 -4 5 1 2 11 -6 15 -4 16 13 7 16 -9 18 -8 14
5 -4 10 0 15 11 15 12 0 15 5 10 18 -5 13 -3 14 6 5 15 -15 39 5 31 27 -5 13
-4 13 13 0 17 -14 18 -13 12 4 -6 16 -5 17 7 7 11 -9 16 -9 22 0 4 8 3 9 -4 5
-18 -11 -14 3 8 31 11 14 20 20 20 13 0 -9 6 -7 20 5 11 10 20 25 20 33 0 8 6
12 15 8 8 -3 14 -2 14 2 -1 4 -1 16 0 27 1 17 3 18 11 5 9 -13 10 -13 11 0 1
8 1 18 0 23 0 4 2 6 6 5 5 -2 10 2 12 7 9 21 31 36 43 29 9 -6 9 -3 -1 9 -12
15 -11 17 2 17 9 0 19 5 23 12 4 7 3 8 -4 4 -7 -4 -3 9 9 28 12 20 26 33 32
29 7 -4 8 0 4 11 -6 14 -3 17 9 12 14 -5 15 -4 4 9 -11 14 -7 19 13 16 4 -1 3
8 -3 20 -11 19 -10 20 10 9 13 -7 20 -8 16 -2 -3 6 -2 13 3 16 5 4 8 14 7 24
-2 9 5 22 14 29 11 8 16 24 15 53 -1 22 3 44 8 47 6 3 7 1 3 -5 -11 -19 5 -14
19 5 9 13 10 23 3 37 -5 10 -6 16 -1 13 5 -3 15 3 22 15 7 11 8 17 2 14 -6 -4
-8 2 -5 16 3 13 6 29 6 36 2 15 18 16 18 0 0 -6 3 -8 7 -5 3 4 -2 16 -12 27
-18 20 -18 21 1 14 17 -7 18 -6 4 11 -8 10 -10 16 -4 12 7 -4 14 2 17 13 3 11
0 20 -6 20 -8 0 -7 4 2 9 9 6 10 11 2 15 -7 5 -8 14 -2 24 4 9 7 27 6 40 -1
13 2 25 7 28 4 3 5 10 2 16 -4 7 -2 8 5 4 6 -4 8 -12 5 -18 -4 -6 -3 -8 3 -5
11 7 12 295 2 312 -4 6 -5 17 -4 26 2 12 -3 15 -19 12 -15 -3 -17 -2 -8 5 17
12 17 22 0 33 -10 7 -10 9 2 9 13 0 13 1 0 10 -12 8 -13 13 -3 29 9 15 10 22
1 27 -7 5 -8 3 -3 -6 5 -8 4 -11 -2 -7 -5 3 -8 22 -7 41 2 20 -1 36 -7 36 -6
0 -7 -4 -4 -10 3 -5 1 -10 -5 -10 -6 0 -8 10 -4 26 6 21 4 25 -7 19 -11 -6
-11 -5 -2 5 9 10 7 20 -11 44 -37 49 -39 56 -19 50 17 -5 17 -5 -1 10 -10 8
-16 21 -14 28 3 7 -3 19 -12 28 -9 8 -10 11 -3 6 10 -6 12 -4 7 8 -3 9 -12 16
-20 16 -8 0 -14 10 -14 26 0 19 -4 25 -14 21 -10 -4 -13 -1 -10 7 3 8 1 17 -5
21 -6 3 -11 17 -11 31 0 14 -3 23 -7 21 -5 -3 -14 1 -21 9 -10 11 -10 14 0 14
9 0 9 3 -2 9 -8 6 -19 7 -25 3 -5 -3 -3 3 5 13 8 10 11 16 5 13 -5 -3 -16 0
-23 8 -10 11 -10 14 0 14 7 1 0 8 -15 16 -22 12 -27 20 -22 37 4 13 3 17 -2
10 -6 -8 -14 -9 -23 -3 -13 9 -13 10 0 10 13 0 13 2 0 9 -8 6 -19 7 -25 3 -5
-3 -4 2 4 11 12 15 12 17 -1 12 -17 -7 -43 19 -33 34 3 6 0 8 -8 5 -8 -3 -18
0 -23 7 -5 8 -3 10 6 4 9 -5 11 -4 6 3 -4 7 -11 12 -16 12 -12 0 -56 44 -64
65 -5 14 -9 15 -21 5 -12 -10 -14 -8 -10 9 2 13 -1 18 -10 15 -7 -3 -24 6 -38
20 -17 17 -27 21 -30 13 -3 -7 -6 -4 -6 6 -1 10 -5 15 -11 12 -5 -3 -10 0 -10
8 0 8 -7 18 -16 21 -15 6 -15 4 -3 -11 7 -10 2 -8 -12 5 -14 12 -29 19 -34 15
-4 -5 -5 0 -2 10 4 9 2 17 -3 17 -6 0 -10 -5 -10 -11 0 -5 -5 -7 -10 -4 -6 4
-7 12 -3 18 4 7 -2 5 -12 -3 -10 -8 -16 -10 -12 -4 4 6 -3 20 -15 30 -12 11
-18 13 -14 7 4 -7 2 -13 -3 -13 -6 0 -11 6 -11 13 0 7 -9 13 -20 14 -13 1 -18
-2 -13 -10 4 -7 0 -6 -10 2 -19 15 -23 26 -5 15 6 -4 8 -3 5 3 -4 6 -20 10
-36 9 -22 -2 -28 2 -23 14 5 12 3 13 -10 2 -13 -10 -17 -10 -22 3 -3 8 -11 15
-18 15 -9 0 -9 -3 2 -10 12 -7 10 -9 -7 -8 -14 2 -20 8 -18 20 2 10 -1 21 -7
24 -6 4 -8 3 -4 -4 4 -7 -12 -10 -49 -9 -35 1 -54 6 -51 13 2 6 -2 11 -10 11
-7 0 -11 -4 -8 -8 2 -4 -1 -11 -7 -15 -8 -4 -9 -3 -5 5 5 8 0 10 -17 7 -20 -3
-25 -1 -22 13 2 10 -3 18 -11 18 -9 0 -13 -6 -9 -16 4 -13 3 -13 -8 1 -12 16
-36 17 -231 16 -119 -1 -219 -4 -221 -7z m-26 -25 c11 -14 6 -15 -27 -7 -4 1
8 21 12 21 2 0 9 -6 15 -14z m201 -213 c0 -3 -8 -2 -17 2 -14 5 -15 4 -6 -6
10 -10 15 -9 28 1 8 7 15 9 15 5 0 -4 8 -1 17 6 11 10 14 10 9 2 -4 -8 -2 -13
8 -13 8 0 18 5 22 11 4 8 9 8 17 0 15 -15 30 -14 21 2 -5 8 -2 8 9 -2 13 -10
20 -11 31 -2 11 9 16 9 22 0 5 -8 3 -10 -7 -4 -8 5 -10 4 -6 0 10 -11 39 -16
32 -6 -2 5 14 5 35 1 22 -4 43 -3 46 1 3 5 10 7 15 3 5 -3 7 -10 4 -15 -6 -9
15 -13 44 -10 7 2 11 -2 7 -7 -3 -5 1 -9 9 -9 8 0 12 4 9 9 -3 4 0 8 5 8 6 0
11 -4 11 -8 0 -4 9 -8 20 -9 13 -1 18 2 13 10 -3 7 3 4 15 -6 12 -11 26 -16
33 -11 8 4 10 3 5 -4 -4 -7 -2 -12 4 -12 6 0 9 -4 6 -8 -3 -5 1 -9 9 -9 8 0
12 4 9 9 -3 4 0 8 5 8 6 0 11 -5 11 -11 0 -6 7 -9 15 -5 8 3 15 1 15 -5 0 -6
7 -9 15 -5 13 5 14 2 4 -17 -11 -20 -11 -21 4 -8 12 9 17 10 17 2 0 -7 4 -10
9 -7 17 11 18 -19 2 -32 -13 -11 -13 -12 -1 -7 8 4 5 -2 -8 -12 -18 -15 -20
-21 -10 -32 8 -9 9 -12 1 -7 -6 3 -14 2 -18 -4 -3 -5 0 -10 7 -10 8 -1 7 -6
-5 -14 -18 -14 -18 -15 0 -26 16 -10 16 -11 0 -6 -14 4 -16 1 -13 -19 4 -19 1
-23 -12 -18 -15 6 -16 5 -2 -12 12 -15 12 -17 1 -10 -11 6 -13 4 -8 -8 4 -11
1 -17 -9 -17 -8 0 -12 -5 -9 -10 4 -6 11 -7 17 -4 7 5 8 2 4 -5 -5 -7 -15 -10
-23 -6 -13 4 -14 3 -4 -9 10 -11 8 -17 -6 -25 -14 -8 -15 -10 -3 -11 11 0 12
-3 3 -8 -6 -4 -13 -20 -15 -35 -3 -16 -9 -32 -16 -36 -6 -4 -13 -17 -15 -30
-2 -12 -10 -27 -18 -33 -11 -8 -11 -9 4 -4 22 7 22 -10 0 -18 -14 -6 -15 -9
-4 -15 9 -6 6 -10 -11 -15 -23 -6 -23 -6 -3 -23 15 -11 15 -14 3 -10 -10 4
-18 -1 -21 -14 -3 -10 -1 -17 4 -13 5 3 9 1 9 -3 0 -5 -9 -14 -21 -21 -14 -9
-18 -17 -11 -25 7 -8 6 -18 -4 -31 -8 -11 -14 -28 -14 -39 0 -12 -4 -16 -12
-11 -8 5 -8 2 1 -10 11 -13 11 -16 1 -14 -7 2 -15 -3 -18 -11 -3 -9 0 -11 8
-6 7 4 5 -4 -4 -18 -9 -13 -15 -31 -14 -38 2 -8 -3 -13 -11 -11 -11 2 -12 0
-4 -10 8 -10 7 -19 -7 -35 -9 -12 -21 -19 -26 -15 -5 4 -3 0 4 -10 10 -12 10
-18 2 -23 -7 -4 -9 -16 -7 -27 3 -11 0 -21 -9 -25 -8 -3 -11 -9 -8 -14 3 -5 1
-9 -5 -9 -5 0 -8 -11 -6 -25 1 -17 -3 -25 -14 -26 -10 0 -11 -2 -4 -6 10 -3
10 -7 0 -18 -7 -7 -15 -11 -19 -8 -5 2 -8 -1 -8 -6 0 -6 6 -11 13 -12 10 0 10
-2 0 -6 -7 -2 -13 -9 -13 -14 0 -6 6 -7 13 -4 6 4 5 1 -4 -7 -9 -7 -14 -19
-11 -27 3 -9 0 -11 -9 -6 -11 6 -11 5 -2 -5 14 -15 -1 -55 -17 -45 -5 3 -12 0
-16 -6 -4 -8 -3 -9 4 -5 7 4 12 1 12 -9 0 -9 -4 -14 -8 -11 -4 3 -7 -8 -6 -24
1 -19 -2 -27 -11 -24 -8 4 -11 -3 -10 -20 2 -14 -1 -26 -7 -26 -5 0 -8 -8 -6
-18 2 -9 -4 -24 -12 -32 -9 -8 -11 -12 -5 -8 6 4 11 -1 11 -11 0 -12 -5 -17
-15 -13 -10 4 -13 1 -8 -12 5 -11 3 -15 -5 -10 -8 5 -9 2 -5 -9 3 -10 2 -17
-3 -17 -5 0 -6 -7 -3 -17 5 -12 3 -14 -8 -8 -12 8 -12 6 0 -8 11 -14 11 -18
-2 -23 -9 -3 -14 -14 -12 -25 2 -11 1 -17 -4 -15 -4 3 -12 -4 -19 -15 -7 -11
-8 -19 -2 -19 5 0 10 5 10 12 0 6 3 9 6 5 3 -3 2 -12 -2 -19 -5 -7 -9 -19 -11
-27 -2 -18 -24 -31 -38 -24 -5 3 -5 0 2 -7 10 -11 9 -16 -5 -27 -9 -8 -12 -12
-6 -9 7 3 14 -3 17 -15 4 -16 3 -18 -8 -9 -11 9 -13 6 -10 -15 1 -17 -2 -25
-10 -22 -6 3 -12 -1 -12 -9 0 -7 5 -10 11 -7 6 4 5 -1 -2 -10 -8 -9 -11 -20
-8 -25 3 -6 -1 -15 -10 -22 -8 -7 -13 -19 -10 -27 3 -8 2 -12 -3 -9 -14 9 -22
-24 -11 -42 5 -10 10 -12 10 -4 0 14 40 17 40 2 0 -5 5 -10 11 -10 5 0 7 5 4
10 -3 6 1 10 10 10 9 0 13 -5 9 -11 -3 -6 4 -4 17 5 16 10 29 12 39 6 8 -5 21
-5 31 1 12 6 22 5 31 -5 11 -11 16 -11 26 1 9 9 18 10 30 4 10 -6 23 -6 34 0
12 6 21 5 30 -4 10 -12 15 -12 26 -1 10 10 19 11 33 4 18 -10 24 -6 20 14 -1
5 5 4 13 -3 8 -7 19 -10 25 -7 5 4 16 -1 24 -9 17 -16 32 -20 23 -6 -3 5 1 12
10 15 8 3 12 2 9 -4 -3 -6 1 -7 9 -4 9 3 16 1 16 -5 0 -6 5 -11 11 -11 5 0 8
4 5 9 -11 16 18 19 36 3 14 -12 21 -12 33 -2 8 7 12 16 9 21 -3 5 2 9 10 9 10
0 13 6 10 15 -4 9 1 18 11 21 9 4 14 13 11 20 -3 9 1 14 12 14 15 0 15 2 2 10
-13 9 -13 10 0 10 13 0 13 1 0 10 -9 6 -11 10 -3 10 7 0 10 7 6 17 -5 13 -3
15 12 9 11 -4 16 -4 12 0 -4 4 -1 14 6 23 10 14 10 14 -3 4 -13 -10 -16 -9
-16 6 0 12 5 17 15 13 10 -4 12 -1 6 7 -4 7 -18 11 -30 9 -18 -4 -22 -1 -18
11 4 13 2 13 -10 -1 -18 -23 -28 -23 -20 0 5 14 3 15 -8 5 -15 -15 -33 -18
-25 -5 3 5 -1 9 -8 9 -8 0 -12 -7 -9 -15 5 -12 3 -12 -18 -1 -31 17 -49 20
-49 8 0 -5 -5 -9 -11 -9 -5 0 -7 6 -4 13 4 6 0 4 -8 -5 -8 -10 -17 -18 -20
-18 -4 0 -4 8 0 18 5 14 3 15 -8 4 -15 -14 -33 -16 -25 -3 7 11 -21 8 -31 -4
-4 -4 -2 -5 5 -1 6 4 12 2 12 -3 0 -13 -3 -13 -24 -5 -9 3 -14 10 -11 14 7 11
-22 6 -32 -5 -4 -4 -2 -5 6 0 10 5 12 4 7 -4 -4 -6 -12 -9 -17 -5 -5 3 -7 10
-4 15 4 5 1 9 -4 9 -6 0 -11 5 -11 11 0 5 4 8 8 5 5 -3 9 1 9 9 0 8 -4 12 -8
9 -4 -2 -10 0 -14 6 -3 5 0 10 8 10 9 0 13 9 11 26 -2 20 0 23 11 14 10 -8 15
-8 21 1 4 8 3 9 -4 5 -7 -4 -12 -2 -12 3 0 6 5 11 10 11 6 0 10 13 10 29 0 17
5 33 10 36 8 5 7 12 -2 23 -10 12 -10 14 0 8 18 -11 35 3 22 19 -8 9 -7 17 4
28 11 11 12 17 3 26 -9 9 -8 11 5 6 13 -5 16 -2 13 14 -4 19 6 26 29 22 5 -1
4 5 -4 13 -8 11 -9 16 -1 16 6 0 11 5 11 11 0 5 -3 8 -7 6 -5 -3 -8 5 -8 18 0
15 5 21 14 17 9 -3 12 -1 7 6 -4 7 -1 12 9 12 9 0 13 5 10 10 -4 6 -12 7 -18
4 -7 -4 -2 3 11 15 12 12 20 26 17 32 -9 13 5 50 16 44 5 -3 6 2 2 11 -4 12
-3 15 5 10 7 -4 12 -2 12 3 0 6 -6 11 -12 12 -7 0 -4 4 7 9 11 5 15 9 8 9 -13
1 -12 26 2 38 4 4 5 2 1 -4 -4 -7 -2 -13 3 -13 14 0 14 13 0 27 -8 8 -5 14 10
23 12 6 19 15 16 21 -4 5 -1 9 5 9 6 0 8 5 5 10 -4 6 -1 18 7 27 11 14 11 16
-2 8 -13 -7 -13 -6 -2 7 7 8 9 24 6 34 -6 17 -5 17 9 -1 16 -20 16 -19 10 4
-4 16 -2 22 5 17 7 -4 8 3 3 21 -7 22 -3 34 13 52 12 14 15 21 6 17 -8 -4 -7
-1 4 8 10 8 15 20 10 27 -4 7 -3 10 3 6 6 -4 13 0 16 7 3 8 1 17 -6 19 -9 3
-8 8 2 18 9 9 11 9 7 2 -10 -18 -1 -16 14 3 11 12 11 15 0 12 -7 -2 -15 3 -18
11 -2 8 0 11 6 8 5 -4 16 1 23 10 10 12 10 14 2 9 -8 -4 -13 -2 -13 8 0 8 5
18 12 22 7 5 8 3 3 -6 -5 -9 -4 -11 4 -6 9 6 9 11 -1 24 -10 12 -10 14 0 8 7
-4 12 -1 12 9 0 10 5 13 13 9 7 -5 6 0 -3 11 -12 15 -12 17 -1 10 11 -6 13 -3
8 14 -4 17 -2 21 9 17 10 -4 13 -2 7 7 -13 22 -12 39 3 33 19 -7 18 -1 -3 20
-17 17 -17 18 1 11 14 -6 17 -4 12 9 -5 14 -4 15 9 4 14 -11 14 -10 5 15 -8
22 -8 26 3 22 10 -4 13 2 9 20 -4 20 -2 24 9 18 8 -5 11 -4 6 0 -4 5 1 18 10
29 17 20 17 20 1 7 -11 -8 -18 -9 -18 -3 0 6 8 16 18 21 16 10 15 10 -3 11
-16 0 -17 2 -5 9 8 6 18 7 24 4 5 -4 6 -1 1 8 -5 7 -10 22 -10 31 -1 14 1 15
12 6 7 -6 16 -8 20 -4 3 3 1 6 -4 6 -13 0 -11 25 2 37 4 4 5 1 1 -7 -4 -8 0
-6 9 5 16 19 17 19 30 2 10 -14 14 -15 18 -5 3 7 6 2 6 -11 1 -15 6 -21 15
-18 8 3 13 -1 12 -11 0 -9 10 -19 24 -23 21 -6 22 -7 5 -9 -14 -1 -16 -3 -6
-7 18 -7 61 -53 61 -65 0 -5 4 -6 10 -3 6 4 7 -1 3 -11 -4 -12 -3 -15 5 -10 8
5 12 -2 12 -20 0 -24 2 -25 17 -13 11 10 14 10 9 2 -4 -7 -3 -13 3 -13 6 0 7
-7 4 -17 -5 -12 -3 -14 7 -8 10 6 12 4 7 -8 -4 -10 -2 -17 5 -17 6 0 5 -6 -3
-17 -12 -15 -12 -16 5 -10 14 6 17 4 12 -9 -6 -15 -4 -15 11 -3 15 12 16 12
10 -3 -3 -10 -2 -20 3 -23 5 -3 6 -13 3 -22 -4 -10 -2 -14 5 -9 6 3 13 2 17
-4 3 -5 -2 -10 -12 -11 -14 0 -14 -2 5 -9 12 -5 22 -12 22 -15 0 -4 -6 -3 -12
1 -10 6 -10 5 -1 -8 7 -8 10 -18 6 -21 -3 -4 -1 -7 7 -7 9 0 10 -3 2 -13 -8
-10 -5 -20 12 -40 13 -15 27 -23 32 -19 4 4 3 0 -4 -9 -6 -9 -9 -18 -7 -21 12
-12 14 -82 4 -95 -10 -11 -8 -12 7 -6 16 6 17 4 7 -9 -13 -15 -8 -28 11 -28 6
0 4 5 -4 10 -9 6 -10 10 -3 10 19 0 26 -20 9 -26 -9 -3 -13 -10 -10 -15 3 -5
9 -7 13 -5 4 3 8 -1 8 -9 0 -11 -5 -12 -21 -3 -18 10 -19 9 -9 -4 7 -8 9 -19
5 -23 -4 -5 -2 -5 4 -2 7 4 14 0 17 -8 4 -10 1 -12 -11 -8 -14 5 -15 3 -5 -7
10 -11 9 -18 -5 -33 -17 -19 -16 -20 7 -7 16 8 21 8 16 1 -4 -7 -2 -18 5 -26
8 -10 8 -15 0 -20 -6 -4 -9 -13 -6 -21 3 -7 0 -11 -7 -8 -7 2 -13 -4 -14 -16
-1 -11 3 -20 8 -20 6 0 7 6 3 13 -4 6 -3 9 1 4 5 -4 9 -16 10 -27 1 -15 -2
-17 -11 -9 -9 7 -12 6 -9 -8 1 -10 8 -17 14 -15 16 3 14 -3 -6 -19 -14 -12
-16 -12 -8 0 6 10 4 12 -5 6 -10 -6 -9 -11 5 -22 13 -8 14 -13 5 -13 -7 0 -11
-3 -7 -6 3 -4 0 -19 -8 -34 -8 -15 -11 -30 -8 -34 15 -15 10 -36 -12 -50 -16
-11 -21 -22 -18 -39 3 -14 -2 -30 -10 -39 -12 -12 -13 -18 -4 -28 10 -10 8
-12 -7 -6 -17 6 -17 5 -5 -11 9 -11 10 -14 2 -9 -8 4 -13 1 -13 -9 0 -10 -5
-13 -12 -9 -8 5 -7 0 2 -11 14 -17 13 -18 -4 -12 -16 6 -17 5 -6 -8 10 -12 9
-15 -6 -15 -16 0 -17 -2 -4 -10 13 -8 13 -10 -2 -10 -11 0 -16 -6 -13 -19 2
-13 -1 -18 -9 -15 -16 6 -29 -19 -34 -64 -1 -6 -7 -11 -13 -10 -6 2 -14 -3
-17 -11 -3 -9 0 -11 9 -7 8 4 6 1 -3 -7 -10 -8 -14 -17 -10 -21 4 -4 0 -6 -8
-4 -8 1 -14 -3 -12 -10 1 -6 -4 -11 -10 -10 -7 2 -12 -3 -10 -11 2 -8 -3 -11
-12 -8 -11 4 -13 1 -9 -10 4 -10 2 -14 -4 -10 -6 4 -13 -3 -16 -14 -3 -12 -9
-19 -14 -16 -4 3 -17 -2 -28 -10 -19 -15 -19 -15 5 -9 18 4 16 2 -7 -9 -18 -8
-33 -18 -33 -21 0 -3 4 -2 10 1 5 3 10 1 10 -6 0 -6 -8 -9 -20 -6 -11 3 -18 2
-15 -2 2 -5 -2 -17 -10 -27 -9 -12 -14 -14 -15 -6 0 10 -3 10 -14 0 -8 -7 -12
-16 -9 -20 2 -5 -3 -9 -11 -9 -30 -3 -34 -4 -43 -13 -5 -5 -2 -6 7 -2 9 5 8 2
-2 -7 -10 -8 -14 -18 -10 -23 4 -4 -2 -2 -12 6 -13 10 -17 10 -12 3 4 -8 2
-14 -6 -15 -7 0 -18 -2 -24 -2 -20 -2 -44 -28 -37 -40 4 -6 -2 -4 -12 4 -11 9
-16 10 -11 3 4 -8 1 -13 -9 -13 -8 0 -18 -7 -21 -15 -5 -12 -10 -13 -19 -5
-10 8 -16 7 -24 -7 -6 -11 -11 -13 -11 -5 0 7 -5 10 -10 7 -6 -4 -7 -11 -4
-17 4 -6 -2 -6 -15 1 -17 9 -20 9 -15 -3 3 -8 0 -17 -7 -22 -7 -4 -10 -3 -5 4
3 6 2 13 -4 17 -5 3 -10 -1 -10 -11 0 -13 -3 -14 -14 -5 -11 10 -17 8 -25 -6
-8 -14 -11 -15 -11 -3 0 12 -3 11 -11 -3 -8 -14 -14 -16 -25 -6 -11 9 -14 8
-14 -7 0 -11 -4 -15 -8 -9 -4 6 -13 11 -21 13 -11 2 -12 0 -3 -11 9 -11 5 -13
-24 -11 -19 2 -40 6 -46 10 -8 5 -9 1 -4 -11 6 -18 6 -18 -15 1 -12 10 -19 13
-14 5 6 -11 4 -13 -7 -8 -9 3 -21 0 -28 -6 -10 -9 -11 -9 -6 1 9 16 -6 16 -23
-1 -11 -10 -12 -9 -6 3 8 13 7 13 -8 1 -14 -11 -17 -11 -18 0 0 12 -1 12 -6 0
-4 -11 -7 -11 -13 0 -7 10 -12 10 -26 -2 -16 -12 -17 -12 -9 1 8 13 7 13 -8 1
-11 -9 -17 -10 -17 -2 0 7 -9 9 -26 5 -17 -4 -25 -3 -21 3 3 5 0 10 -8 10 -8
0 -12 -4 -9 -9 3 -4 1 -8 -4 -8 -6 0 -13 7 -16 16 -3 8 -11 12 -16 9 -6 -4
-18 -1 -27 7 -10 8 -14 8 -10 1 10 -17 -12 -28 -26 -13 -9 10 -9 11 2 5 10 -6
12 -4 7 4 -6 9 -11 9 -21 1 -9 -8 -17 -7 -26 2 -18 17 -63 22 -53 6 4 -7 3 -8
-5 -4 -6 4 -9 11 -6 16 3 5 1 11 -5 15 -5 3 -10 -2 -10 -12 0 -14 -3 -12 -13
7 -14 27 -31 32 -61 17 -13 -6 -16 -6 -12 2 4 6 2 11 -4 11 -6 0 -8 5 -4 12 6
10 4 10 -8 0 -14 -11 -18 -10 -30 6 -7 10 -26 22 -41 26 -18 4 -25 11 -20 19
4 7 -2 5 -12 -3 -10 -8 -16 -10 -12 -4 9 16 -29 48 -48 40 -9 -3 -13 -2 -10 4
3 6 -5 14 -19 20 -14 5 -26 17 -26 27 0 14 -2 15 -9 4 -7 -11 -10 -9 -16 8 -3
11 -12 21 -18 21 -7 0 -21 14 -32 30 -11 16 -24 30 -29 30 -5 0 -1 -10 10 -23
10 -13 6 -9 -11 7 -25 27 -27 31 -11 34 16 4 16 4 0 16 -13 10 -14 15 -4 21 9
5 11 4 6 -3 -4 -7 -5 -12 -2 -12 3 0 10 10 17 21 6 13 7 19 1 15 -12 -7 -10
20 3 31 4 4 5 2 1 -4 -4 -7 -5 -13 -2 -13 2 0 11 14 20 31 14 29 14 30 -2 25
-12 -5 -11 -1 4 11 14 12 20 26 18 42 -3 16 0 22 9 18 7 -3 13 3 13 13 0 10
-5 16 -11 12 -5 -3 -4 2 4 11 7 9 16 15 20 13 4 -3 7 4 7 14 0 16 -3 17 -16 7
-13 -10 -13 -10 -2 5 8 10 10 23 6 30 -5 8 -1 8 11 -2 11 -9 16 -10 11 -2 -4
7 -1 15 9 19 16 5 16 7 0 16 -17 9 -16 11 6 29 13 11 19 17 12 14 -6 -4 -14
-2 -18 4 -3 5 -2 10 2 10 5 0 16 18 26 40 9 22 23 40 29 40 9 0 8 4 -2 10 -12
8 -12 10 5 11 15 0 16 2 5 7 -19 9 -25 33 -6 26 11 -4 14 2 11 21 -1 16 5 35
15 45 13 13 15 22 7 35 -7 13 -6 16 2 11 6 -4 12 -2 12 3 1 6 2 15 3 20 0 5 5
13 10 18 5 5 6 3 2 -4 -4 -7 -2 -13 3 -13 15 0 14 13 -1 29 -11 11 -10 12 1 6
11 -6 13 -3 9 13 -5 16 -2 22 10 22 13 0 12 3 -4 16 -10 8 -13 13 -6 9 11 -5
16 6 13 27 0 4 7 4 16 1 10 -4 14 -2 9 5 -3 6 -2 14 4 17 8 5 7 12 -2 23 -10
12 -10 14 0 8 8 -5 12 -1 13 11 0 11 3 13 6 5 4 -10 8 -10 21 0 12 10 16 10
19 1 3 -7 9 -13 14 -13 6 0 7 5 4 10 -3 6 -1 10 4 10 6 0 11 -4 11 -10 0 -5 5
-10 11 -10 5 0 7 6 3 13 -5 7 0 6 11 -3 11 -9 16 -10 11 -2 -4 6 -2 12 3 12 6
0 11 -5 11 -11 0 -6 5 -7 13 -2 16 10 38 13 32 4 -2 -4 2 -8 10 -8 8 0 12 4 9
9 -3 4 0 8 5 8 6 0 11 -5 11 -11 0 -6 5 -7 13 -2 16 10 38 13 32 4 -2 -4 2 -8
10 -8 8 0 12 4 9 9 -3 4 0 8 5 8 6 0 11 -5 11 -11 0 -6 5 -7 13 -2 16 10 38
13 32 4 -2 -4 2 -8 10 -8 8 0 12 4 9 9 -3 4 0 8 5 8 6 0 11 -5 11 -12 0 -9 3
-9 12 0 9 9 15 9 27 -1 12 -9 13 -9 7 1 -4 6 -2 12 3 12 6 0 11 -4 11 -10 0
-5 5 -10 12 -10 6 0 9 3 5 6 -3 4 0 13 8 20 17 17 29 18 19 2 -4 -7 -3 -8 5
-4 6 4 8 13 4 19 -15 25 -10 44 11 40 12 -2 15 0 8 3 -10 5 -9 10 5 21 10 8
13 12 7 9 -7 -3 -14 1 -17 9 -4 10 -1 12 10 8 11 -4 14 -3 9 6 -4 6 -3 18 3
25 7 8 9 29 6 47 -4 24 -2 30 4 19 5 -8 7 -19 4 -25 -4 -5 -2 -7 2 -2 5 4 9
16 10 26 1 15 -4 18 -27 15 -16 -2 -27 0 -24 4 3 4 -8 8 -24 7 -20 0 -26 -3
-19 -12 7 -7 6 -14 -3 -19 -7 -4 -10 -4 -6 1 4 4 1 14 -7 21 -15 16 -29 19
-21 5 3 -5 -1 -11 -9 -14 -10 -4 -12 -1 -8 10 5 13 1 12 -23 -3 -21 -13 -26
-14 -17 -3 10 13 1 15 -82 14 -51 0 -91 -3 -89 -6 2 -4 -5 -9 -17 -12 -16 -4
-18 -3 -8 9 15 19 4 18 -27 -2 -14 -10 -24 -13 -23 -8 1 5 1 16 0 24 -1 13 -2
13 -11 0 -5 -8 -10 -10 -10 -4 0 6 3 14 7 18 4 3 8 17 10 29 2 17 1 19 -6 7
-5 -8 -7 -18 -4 -24 3 -5 1 -6 -5 -2 -15 9 -4 34 20 47 16 9 17 13 6 27 -11
13 -11 14 1 7 11 -6 13 -4 8 8 -3 9 -3 16 1 16 19 -3 25 2 12 11 -13 8 -12 10
4 10 14 0 16 3 8 13 -12 14 1 43 15 34 5 -3 10 0 10 8 0 8 -4 12 -8 9 -4 -2
-11 0 -14 6 -4 6 -1 9 7 8 7 -2 12 3 10 11 -2 9 3 11 15 8 16 -6 17 -5 1 5
-15 11 -15 13 0 26 9 7 12 11 6 8 -6 -3 -11 1 -11 9 0 8 4 12 8 9 4 -2 18 6
30 18 12 13 19 18 15 11 -5 -9 7 -12 41 -11 27 0 53 -1 58 -2 6 -1 13 -2 18
-1 4 0 7 -5 7 -11 0 -9 4 -7 10 2 9 16 47 19 68 6 7 -4 12 -2 12 5 0 8 4 8 15
-1 10 -9 15 -9 15 -1 0 6 9 11 21 11 11 0 18 -4 15 -9 -6 -9 29 -7 64 4 17 6
21 4 14 -6 -6 -10 -3 -10 11 1 11 9 16 10 11 3 -11 -19 5 -16 21 5 8 9 12 11
8 5 -3 -7 -1 -13 4 -13 6 0 11 6 11 14 0 8 7 17 16 20 9 4 14 13 10 21 -3 9 0
15 10 15 8 0 12 5 9 10 -3 6 -2 10 4 10 6 0 6 11 1 29 -7 25 -6 29 8 24 10 -4
13 -2 8 5 -4 7 -3 12 3 12 6 0 7 8 4 17 -5 13 -2 15 13 10 19 -7 19 -7 0 8
-20 15 -20 15 0 16 14 0 15 2 4 6 -8 4 -21 13 -28 22 -8 9 -11 11 -8 5 3 -7
-1 -15 -10 -18 -8 -3 -13 -2 -10 3 3 5 -3 11 -15 14 -15 4 -17 2 -10 -6 7 -9
2 -12 -15 -13 -18 -2 -22 1 -15 10 6 8 2 11 -14 11 -12 0 -21 -5 -18 -11 2 -6
-3 -11 -11 -11 -8 0 -13 4 -10 9 6 10 -10 11 -20 1 -10 -10 -46 -11 -40 -1 8
13 -41 9 -55 -4 -11 -10 -13 -10 -7 0 4 6 3 12 -1 12 -5 0 -15 -6 -22 -12 -11
-10 -13 -10 -7 0 8 14 -10 17 -19 2 -3 -5 -11 -10 -17 -10 -7 0 -7 4 0 13 8
10 5 12 -14 12 -13 -1 -27 -5 -31 -10 -5 -4 -2 -5 5 -1 6 4 12 2 12 -3 0 -14
-17 -14 -25 -1 -4 6 -12 7 -18 3 -17 -10 -47 -11 -41 -1 3 4 -2 8 -11 8 -9 0
-14 -4 -11 -8 2 -4 -4 -9 -15 -9 -16 -2 -18 1 -9 12 9 11 7 12 -12 8 -13 -3
-29 -11 -37 -17 -11 -8 -13 -8 -7 2 7 12 -6 17 -17 5 -4 -3 -19 -8 -34 -9 -18
-2 -23 0 -15 5 10 6 8 10 -7 14 -12 3 -19 1 -15 -4 3 -5 0 -10 -5 -10 -6 -1
-17 -2 -23 -3 -7 -1 -19 3 -27 8 -11 8 -13 8 -8 -1 4 -7 0 -17 -10 -23 -17
-11 -17 -11 1 -6 15 5 17 4 8 -7 -7 -8 -9 -17 -5 -21 4 -4 -3 -9 -15 -13 -12
-3 -19 -9 -16 -14 3 -5 10 -7 15 -4 15 10 10 -2 -8 -16 -15 -12 -16 -12 -8 1
4 8 4 12 0 7 -11 -10 -16 -39 -6 -32 4 2 8 -2 8 -10 0 -8 -3 -12 -7 -10 -3 2
-15 -10 -25 -27 -10 -17 -13 -28 -8 -25 5 3 10 0 10 -7 0 -8 -7 -12 -15 -9
-12 5 -12 2 -2 -17 11 -20 10 -22 -5 -16 -15 5 -16 4 -5 -9 10 -12 10 -15 0
-15 -7 0 -10 -7 -6 -16 4 -12 2 -15 -9 -10 -14 5 -19 -5 -16 -32 1 -8 -4 -21
-11 -30 -7 -9 -8 -13 -2 -9 6 3 11 -1 11 -9 0 -8 -5 -13 -12 -11 -6 3 -12 -4
-12 -14 -1 -12 3 -17 9 -13 7 4 8 2 4 -5 -5 -8 -12 -9 -20 -2 -8 7 -11 0 -10
-26 2 -42 -14 -85 -29 -76 -6 4 -8 -4 -5 -20 4 -19 1 -24 -10 -20 -11 5 -12 2
-5 -13 13 -24 5 -49 -10 -35 -9 6 -12 2 -13 -15 -1 -13 3 -24 9 -24 5 0 2 -9
-8 -20 -10 -11 -14 -20 -9 -20 5 0 2 -5 -6 -10 -12 -8 -12 -10 -1 -10 9 0 6
-7 -9 -20 -13 -11 -17 -20 -10 -20 7 0 5 -7 -7 -17 -10 -10 -12 -13 -4 -8 12
7 11 3 -3 -19 -13 -20 -15 -31 -8 -34 8 -2 7 -8 -3 -19 -8 -8 -13 -19 -9 -24
3 -5 -1 -12 -10 -15 -8 -3 -13 -14 -11 -26 3 -13 0 -18 -9 -15 -10 4 -12 -1
-8 -15 4 -16 2 -19 -9 -13 -11 7 -11 5 1 -10 9 -11 10 -16 3 -11 -8 4 -13 1
-13 -8 0 -9 -6 -16 -12 -16 -9 0 -8 -4 2 -10 13 -9 13 -11 0 -20 -12 -8 -13
-11 -1 -19 15 -10 -3 -26 -18 -16 -6 3 -8 -4 -6 -15 2 -11 0 -20 -5 -20 -5 0
-6 -7 -3 -17 4 -10 2 -14 -4 -10 -5 3 -9 -3 -8 -16 1 -12 -6 -28 -17 -35 -14
-10 -16 -17 -8 -32 6 -12 7 -21 0 -25 -5 -3 -7 -12 -4 -20 4 -8 -1 -18 -10
-21 -9 -3 -14 -10 -11 -14 3 -5 1 -11 -5 -15 -5 -3 -10 -1 -10 6 0 7 -3 9 -6
6 -4 -4 -1 -13 5 -21 10 -11 8 -17 -6 -25 -10 -6 -13 -11 -6 -11 9 0 11 -19 3
-40 -1 -3 -2 -8 -2 -11 1 -3 -9 -6 -21 -5 -12 0 -23 7 -23 14 -1 6 -2 17 -3
23 0 6 -8 9 -16 5 -12 -4 -13 -2 -5 13 7 14 6 21 -2 23 -6 2 -13 22 -15 43 -2
22 -11 44 -19 48 -9 5 -13 16 -9 27 3 10 1 21 -5 25 -14 9 -13 27 3 20 6 -4 4
0 -7 9 -11 9 -16 21 -12 32 4 11 2 15 -7 11 -9 -3 -13 2 -12 16 1 12 -2 27 -7
34 -6 7 -4 14 3 19 8 5 9 3 4 -6 -5 -9 -4 -11 3 -6 8 5 9 13 2 25 -5 10 -6 21
-3 25 3 3 2 6 -4 6 -5 0 -10 7 -10 15 0 8 4 15 9 15 4 0 8 5 8 11 0 5 -6 7
-12 3 -9 -5 -9 -2 1 9 11 14 11 17 0 17 -9 0 -10 3 -4 8 9 6 11 25 5 45 -7 20
-5 33 4 45 7 10 5 16 -5 23 -11 7 -11 9 0 9 10 0 11 3 2 14 -9 11 -9 16 0 22
8 5 9 3 4 -6 -6 -9 -4 -11 4 -6 9 6 8 13 -6 29 -10 11 -12 17 -4 12 10 -6 12
2 10 38 -2 25 -1 43 4 40 4 -2 7 1 7 7 0 6 4 9 9 5 6 -3 6 6 1 25 -5 17 -5 28
0 25 16 -10 22 15 8 32 -7 9 -8 14 -3 11 6 -4 17 2 24 14 7 11 8 18 3 14 -5
-3 -9 1 -9 8 0 8 7 12 15 9 11 -5 13 -1 7 17 -6 18 -4 22 8 17 11 -4 14 -2 10
8 -3 8 -10 12 -17 9 -6 -3 -4 0 5 8 9 7 15 20 14 29 -2 10 4 16 14 15 10 -1
15 5 13 17 -2 9 2 17 8 17 5 0 10 5 10 11 0 5 -5 7 -12 3 -7 -4 -8 -3 -4 5 4
6 11 9 16 6 5 -3 14 5 21 17 12 22 11 22 -7 8 -19 -14 -19 -14 -1 7 11 13 16
27 11 35 -4 7 -4 10 1 6 14 -13 44 11 40 31 -3 15 1 18 12 14 11 -4 14 -2 9 5
-4 7 -2 12 5 12 7 0 9 8 6 21 -4 16 -3 18 9 8 11 -9 14 -8 14 4 0 8 8 21 18
28 15 12 16 12 7 -1 -5 -9 -2 -7 7 5 40 48 49 55 60 49 7 -4 8 -3 4 5 -4 6
-13 9 -19 5 -7 -3 -1 3 13 14 13 11 28 18 32 16 4 -3 8 2 8 11 0 9 5 13 10 10
6 -3 10 1 10 9 0 8 5 18 12 22 6 4 8 3 5 -3 -4 -6 -1 -13 7 -16 10 -4 12 1 8
16 -3 12 -1 19 3 15 4 -4 14 0 22 10 9 10 12 11 7 2 -4 -8 7 0 24 19 22 23 38
32 52 28 11 -3 18 -1 14 4 -5 8 9 13 28 10 5 0 7 2 7 7 -3 19 2 25 11 12 8
-13 11 -11 16 8 4 12 11 22 16 22 5 0 6 -6 3 -12 -4 -7 -1 -6 7 3 7 9 19 14
27 11 8 -3 11 0 7 6 -3 6 -1 14 5 18 7 4 9 3 5 -4 -3 -6 -2 -13 3 -16 5 -3 11
1 15 9 3 8 11 15 17 15 8 0 8 -4 -1 -14 -10 -13 -8 -13 14 -3 13 6 20 15 14
18 -7 4 -7 9 0 13 6 3 14 1 17 -4 5 -8 13 -6 26 6 15 13 19 14 20 3 0 -11 2
-11 6 -1 4 10 8 10 19 1 12 -10 13 -9 8 5 -5 12 -2 15 12 9 12 -4 15 -3 10 5
-4 7 -2 12 3 12 6 0 11 -5 11 -12 0 -6 7 -3 15 8 10 13 13 14 10 3 -4 -9 0
-16 9 -16 8 0 12 6 9 13 -3 9 2 12 16 9 11 -2 23 0 26 5 6 9 35 3 35 -7z m340
-9 c0 -8 -19 -13 -24 -6 -3 5 1 9 9 9 8 0 15 -2 15 -3z m607 -66 c-3 -8 -6 -5
-6 6 -1 11 2 17 5 13 3 -3 4 -12 1 -19z m-1663 -256 c3 -5 -1 -9 -9 -9 -8 0
-12 4 -9 9 3 4 7 8 9 8 2 0 6 -4 9 -8z m1867 -429 c13 -16 12 -17 -3 -4 -17
13 -22 21 -14 21 2 0 10 -8 17 -17z m-1236 -22 c-8 -7 -45 -9 -50 -1 -2 3 9 6
25 6 17 0 27 -2 25 -5z m1512 -138 c-4 -3 -2 -12 4 -20 8 -9 8 -13 1 -13 -6 0
-14 5 -17 10 -6 10 2 30 12 30 4 0 3 -3 0 -7z m-2643 -432 c-1 -14 3 -32 9
-38 6 -9 6 -13 -1 -13 -5 0 -13 8 -17 18 -13 30 -14 59 -1 59 6 0 11 -12 10
-26z m436 -61 c0 -5 -2 -10 -4 -10 -3 0 -8 5 -11 10 -3 6 -1 10 4 10 6 0 11
-4 11 -10z m1937 -25 c0 -8 -4 -12 -9 -9 -5 3 -6 10 -3 15 9 13 12 11 12 -6z
m-2107 -35 c0 -5 -2 -10 -4 -10 -3 0 -8 5 -11 10 -3 6 -1 10 4 10 6 0 11 -4
11 -10z m1990 -220 c0 -5 -5 -10 -11 -10 -5 0 -7 5 -4 10 3 6 8 10 11 10 2 0
4 -4 4 -10z m245 -29 c3 -5 2 -12 -3 -15 -5 -3 -9 1 -9 9 0 17 3 19 12 6z
m-805 -41 c0 -5 -5 -10 -11 -10 -5 0 -7 5 -4 10 3 6 8 10 11 10 2 0 4 -4 4
-10z m55 -220 c3 -5 1 -10 -4 -10 -6 0 -11 5 -11 10 0 6 2 10 4 10 3 0 8 -4
11 -10z m-1030 -59 c3 -5 2 -12 -3 -15 -5 -3 -9 1 -9 9 0 17 3 19 12 6z m1139
-29 c3 -5 -1 -9 -9 -9 -8 0 -12 4 -9 9 3 4 7 8 9 8 2 0 6 -4 9 -8z m-929 -72
c3 -5 1 -10 -4 -10 -6 0 -11 5 -11 10 0 6 2 10 4 10 3 0 8 -4 11 -10z m193
-75 c-3 -3 -9 2 -12 12 -6 14 -5 15 5 6 7 -7 10 -15 7 -18z m-1013 -75 c3 -5
1 -10 -4 -10 -6 0 -11 5 -11 10 0 6 2 10 4 10 3 0 8 -4 11 -10z m1004 -143 c0
-8 -2 -8 -6 1 -4 10 -8 10 -21 0 -15 -12 -16 -11 -3 4 14 19 32 15 30 -5z
m439 10 c10 4 13 2 8 -5 -6 -10 -22 -10 -54 -3 -2 1 0 6 4 12 4 7 10 7 16 1 6
-6 17 -8 26 -5z"/>
<path d="M1190 2438 c0 -4 4 -8 9 -8 6 0 12 4 15 8 3 5 -1 9 -9 9 -8 0 -15 -4
-15 -9z"/>
<path d="M760 2290 c-9 -6 -10 -10 -3 -10 6 0 15 5 18 10 8 12 4 12 -15 0z"/>
<path d="M1609 1703 c-13 -16 -12 -17 4 -4 16 13 21 21 13 21 -2 0 -10 -8 -17
-17z"/>
<path d="M2438 1333 c10 -4 10 -8 0 -21 -12 -15 -11 -16 4 -3 19 14 15 32 -5
30 -8 0 -8 -2 1 -6z"/>
<path d="M2413 1145 c0 -8 4 -12 9 -9 5 3 6 10 3 15 -9 13 -12 11 -12 -6z"/>
<path d="M372 854 c-7 -8 -8 -14 -3 -14 10 0 25 19 20 25 -2 1 -10 -3 -17 -11z"/>
<path d="M1295 460 c-3 -5 -1 -10 4 -10 6 0 11 5 11 10 0 6 -2 10 -4 10 -3 0
-8 -4 -11 -10z"/>
<path d="M1355 460 c-3 -5 -1 -10 4 -10 6 0 11 5 11 10 0 6 -2 10 -4 10 -3 0
-8 -4 -11 -10z"/>
<path d="M1415 460 c-3 -5 -1 -10 4 -10 6 0 11 5 11 10 0 6 -2 10 -4 10 -3 0
-8 -4 -11 -10z"/>
<path d="M1475 460 c-3 -5 -1 -10 4 -10 6 0 11 5 11 10 0 6 -2 10 -4 10 -3 0
-8 -4 -11 -10z"/>
<path d="M1535 460 c-3 -5 -1 -10 4 -10 6 0 11 5 11 10 0 6 -2 10 -4 10 -3 0
-8 -4 -11 -10z"/>
<path d="M1590 460 c0 -5 5 -10 11 -10 5 0 7 5 4 10 -3 6 -8 10 -11 10 -2 0
-4 -4 -4 -10z"/>
<path d="M1580 2690 c-8 -5 -12 -11 -10 -14 3 -2 14 2 24 10 22 15 10 19 -14
4z"/>
<path d="M2595 1830 c3 -5 8 -10 11 -10 2 0 4 5 4 10 0 6 -5 10 -11 10 -5 0
-7 -4 -4 -10z"/>
<path d="M2673 1155 c0 -8 4 -12 9 -9 5 3 6 10 3 15 -9 13 -12 11 -12 -6z"/>
</g>
</svg>
